-series GW1N
-device GW1N-1
-package QFN48
-part_number GW1N-LV1QN48C6/I5


-mod_name Gowin_DPB
-file_name gowin_dpb
-path Z:/Documents/6502/VGA2/src/gowin_dpb/
-type RAM_DP
-file_type vlg
-bram_b true
-dev_type GW1N-1
-depth_0 8192
-depth_1 8192
-width_0 8
-width_1 8
-read_mode_0 bypass
-read_mode_1 bypass
-write_mode_0 write-through
-write_mode_1 normal
-reset_mode sync
-init_file Z:/Documents/6502/vga_bram/mem.mi
-init_match port_A