%TF.GenerationSoftware,KiCad,Pcbnew,(5.1.6-0-10_14)*%
%TF.CreationDate,2021-01-15T21:20:50+01:00*%
%TF.ProjectId,vga,7667612e-6b69-4636-9164-5f7063625858,rev?*%
%TF.SameCoordinates,Original*%
%TF.FileFunction,Soldermask,Bot*%
%TF.FilePolarity,Negative*%
%FSLAX46Y46*%
G04 Gerber Fmt 4.6, Leading zero omitted, Abs format (unit mm)*
G04 Created by KiCad (PCBNEW (5.1.6-0-10_14)) date 2021-01-15 21:20:50*
%MOMM*%
%LPD*%
G01*
G04 APERTURE LIST*
%ADD10R,2.100000X1.900000*%
%ADD11R,0.840000X2.500000*%
%ADD12O,1.800000X1.800000*%
%ADD13R,1.800000X1.800000*%
G04 APERTURE END LIST*
%TO.C,R1*%
G36*
G01*
X28795238Y-46492000D02*
X29751762Y-46492000D01*
G75*
G02*
X30023500Y-46763738I0J-271738D01*
G01*
X30023500Y-47470262D01*
G75*
G02*
X29751762Y-47742000I-271738J0D01*
G01*
X28795238Y-47742000D01*
G75*
G02*
X28523500Y-47470262I0J271738D01*
G01*
X28523500Y-46763738D01*
G75*
G02*
X28795238Y-46492000I271738J0D01*
G01*
G37*
G36*
G01*
X28795238Y-44442000D02*
X29751762Y-44442000D01*
G75*
G02*
X30023500Y-44713738I0J-271738D01*
G01*
X30023500Y-45420262D01*
G75*
G02*
X29751762Y-45692000I-271738J0D01*
G01*
X28795238Y-45692000D01*
G75*
G02*
X28523500Y-45420262I0J271738D01*
G01*
X28523500Y-44713738D01*
G75*
G02*
X28795238Y-44442000I271738J0D01*
G01*
G37*
%TD*%
%TO.C,C3*%
G36*
G01*
X19154544Y-18632000D02*
X20469456Y-18632000D01*
G75*
G02*
X20737000Y-18899544I0J-267544D01*
G01*
X20737000Y-19889456D01*
G75*
G02*
X20469456Y-20157000I-267544J0D01*
G01*
X19154544Y-20157000D01*
G75*
G02*
X18887000Y-19889456I0J267544D01*
G01*
X18887000Y-18899544D01*
G75*
G02*
X19154544Y-18632000I267544J0D01*
G01*
G37*
G36*
G01*
X19154544Y-15657000D02*
X20469456Y-15657000D01*
G75*
G02*
X20737000Y-15924544I0J-267544D01*
G01*
X20737000Y-16914456D01*
G75*
G02*
X20469456Y-17182000I-267544J0D01*
G01*
X19154544Y-17182000D01*
G75*
G02*
X18887000Y-16914456I0J267544D01*
G01*
X18887000Y-15924544D01*
G75*
G02*
X19154544Y-15657000I267544J0D01*
G01*
G37*
%TD*%
D10*
%TO.C,X1*%
X22538000Y-17272000D03*
X22538000Y-22352000D03*
X26738000Y-22352000D03*
X26738000Y-17272000D03*
%TD*%
%TO.C,R3*%
G36*
G01*
X20174000Y-41939738D02*
X20174000Y-42896262D01*
G75*
G02*
X19902262Y-43168000I-271738J0D01*
G01*
X19195738Y-43168000D01*
G75*
G02*
X18924000Y-42896262I0J271738D01*
G01*
X18924000Y-41939738D01*
G75*
G02*
X19195738Y-41668000I271738J0D01*
G01*
X19902262Y-41668000D01*
G75*
G02*
X20174000Y-41939738I0J-271738D01*
G01*
G37*
G36*
G01*
X22224000Y-41939738D02*
X22224000Y-42896262D01*
G75*
G02*
X21952262Y-43168000I-271738J0D01*
G01*
X21245738Y-43168000D01*
G75*
G02*
X20974000Y-42896262I0J271738D01*
G01*
X20974000Y-41939738D01*
G75*
G02*
X21245738Y-41668000I271738J0D01*
G01*
X21952262Y-41668000D01*
G75*
G02*
X22224000Y-41939738I0J-271738D01*
G01*
G37*
%TD*%
D11*
%TO.C,J3*%
X26924000Y-49829000D03*
X26924000Y-45929000D03*
X25654000Y-49829000D03*
X25654000Y-45929000D03*
X24384000Y-49829000D03*
X24384000Y-45929000D03*
X23114000Y-49829000D03*
X23114000Y-45929000D03*
X21844000Y-49829000D03*
X21844000Y-45929000D03*
%TD*%
%TO.C,C2*%
G36*
G01*
X18900544Y-49493000D02*
X20215456Y-49493000D01*
G75*
G02*
X20483000Y-49760544I0J-267544D01*
G01*
X20483000Y-50750456D01*
G75*
G02*
X20215456Y-51018000I-267544J0D01*
G01*
X18900544Y-51018000D01*
G75*
G02*
X18633000Y-50750456I0J267544D01*
G01*
X18633000Y-49760544D01*
G75*
G02*
X18900544Y-49493000I267544J0D01*
G01*
G37*
G36*
G01*
X18900544Y-46518000D02*
X20215456Y-46518000D01*
G75*
G02*
X20483000Y-46785544I0J-267544D01*
G01*
X20483000Y-47775456D01*
G75*
G02*
X20215456Y-48043000I-267544J0D01*
G01*
X18900544Y-48043000D01*
G75*
G02*
X18633000Y-47775456I0J267544D01*
G01*
X18633000Y-46785544D01*
G75*
G02*
X18900544Y-46518000I267544J0D01*
G01*
G37*
%TD*%
%TO.C,C1*%
G36*
G01*
X23599544Y-28030000D02*
X24914456Y-28030000D01*
G75*
G02*
X25182000Y-28297544I0J-267544D01*
G01*
X25182000Y-29287456D01*
G75*
G02*
X24914456Y-29555000I-267544J0D01*
G01*
X23599544Y-29555000D01*
G75*
G02*
X23332000Y-29287456I0J267544D01*
G01*
X23332000Y-28297544D01*
G75*
G02*
X23599544Y-28030000I267544J0D01*
G01*
G37*
G36*
G01*
X23599544Y-25055000D02*
X24914456Y-25055000D01*
G75*
G02*
X25182000Y-25322544I0J-267544D01*
G01*
X25182000Y-26312456D01*
G75*
G02*
X24914456Y-26580000I-267544J0D01*
G01*
X23599544Y-26580000D01*
G75*
G02*
X23332000Y-26312456I0J267544D01*
G01*
X23332000Y-25322544D01*
G75*
G02*
X23599544Y-25055000I267544J0D01*
G01*
G37*
%TD*%
D12*
%TO.C,J2*%
X31877000Y-49657000D03*
X31877000Y-47117000D03*
X31877000Y-44577000D03*
X31877000Y-42037000D03*
X31877000Y-39497000D03*
X31877000Y-36957000D03*
X31877000Y-34417000D03*
X31877000Y-31877000D03*
X31877000Y-29337000D03*
X31877000Y-26797000D03*
X31877000Y-24257000D03*
X31877000Y-21717000D03*
X31877000Y-19177000D03*
D13*
X31877000Y-16637000D03*
%TD*%
D12*
%TO.C,J1*%
X16637000Y-49657000D03*
X16637000Y-47117000D03*
X16637000Y-44577000D03*
X16637000Y-42037000D03*
X16637000Y-39497000D03*
X16637000Y-36957000D03*
X16637000Y-34417000D03*
X16637000Y-31877000D03*
X16637000Y-29337000D03*
X16637000Y-26797000D03*
X16637000Y-24257000D03*
X16637000Y-21717000D03*
X16637000Y-19177000D03*
D13*
X16637000Y-16637000D03*
%TD*%
M02*
