(module LOGO (layer F.Cu)
  (at 0 0)
 (fp_text reference "G***" (at 0 0) (layer F.SilkS) hide
  (effects (font (thickness 0.3)))
  )
  (fp_text value "LOGO" (at 0.75 0) (layer F.SilkS) hide
  (effects (font (thickness 0.3)))
  )
  (fp_poly (pts (xy 5.201877 0.906295) (xy 5.261490 0.920302) (xy 5.311409 0.944010) (xy 5.352144 0.977675) (xy 5.384206 1.021557) (xy 5.389950 1.032221) (xy 5.410105 1.086680) (xy 5.418652 1.146003)
     (xy 5.416292 1.208157) (xy 5.403729 1.271110) (xy 5.381665 1.332830) (xy 5.350803 1.391285) (xy 5.311845 1.444443) (xy 5.265495 1.490272) (xy 5.220540 1.522107) (xy 5.170811 1.545119)
     (xy 5.112570 1.561603) (xy 5.050087 1.571009) (xy 4.987633 1.572785) (xy 4.929479 1.566380) (xy 4.910838 1.562078) (xy 4.857347 1.541363) (xy 4.811097 1.510675) (xy 4.774027 1.471675)
     (xy 4.748078 1.426025) (xy 4.746059 1.420863) (xy 4.732585 1.367188) (xy 4.729177 1.310723) (xy 4.905815 1.310723) (xy 4.911604 1.358772) (xy 4.927283 1.396991) (xy 4.952917 1.425562)
     (xy 4.977140 1.440065) (xy 5.007434 1.450393) (xy 5.037684 1.452390) (xy 5.072951 1.446182) (xy 5.085248 1.442744) (xy 5.124756 1.423985) (xy 5.160355 1.393546) (xy 5.190890 1.353585)
     (xy 5.215209 1.306262) (xy 5.232157 1.253736) (xy 5.240581 1.198165) (xy 5.240366 1.152421) (xy 5.231607 1.104973) (xy 5.213745 1.068132) (xy 5.186969 1.042093) (xy 5.151470 1.027050)
     (xy 5.115009 1.023055) (xy 5.067724 1.029745) (xy 5.024620 1.049088) (xy 4.986669 1.079996) (xy 4.954843 1.121383) (xy 4.930114 1.172161) (xy 4.913454 1.231240) (xy 4.909851 1.252664)
     (xy 4.905815 1.310723) (xy 4.729177 1.310723) (xy 4.728950 1.306977) (xy 4.734886 1.243539) (xy 4.750122 1.180182) (xy 4.769786 1.129711) (xy 4.807373 1.064364) (xy 4.854058 1.009770)
     (xy 4.910146 0.965656) (xy 4.975937 0.931752) (xy 5.000368 0.922572) (xy 5.032823 0.912215) (xy 5.060451 0.905923) (xy 5.089229 0.902750) (xy 5.125128 0.901750) (xy 5.132060 0.901729)
     (xy 5.201877 0.906295) )(layer F.SilkS) (width  0.010000)
  )
  (fp_poly (pts (xy 3.450855 0.910473) (xy 3.476284 0.911529) (xy 3.491316 0.913537) (xy 3.497804 0.916699) (xy 3.498309 0.919499) (xy 3.494359 0.927209) (xy 3.483867 0.945869) (xy 3.467516 0.974309)
     (xy 3.445989 1.011358) (xy 3.419970 1.055845) (xy 3.390142 1.106600) (xy 3.357189 1.162453) (xy 3.321793 1.222232) (xy 3.309056 1.243694) (xy 3.122084 1.558558) (xy 3.025070 1.558918)
     (xy 2.986191 1.558910) (xy 2.959262 1.558372) (xy 2.942122 1.557036) (xy 2.932612 1.554638) (xy 2.928571 1.550910) (xy 2.927827 1.546930) (xy 2.926863 1.537529) (xy 2.924197 1.515633)
     (xy 2.920023 1.482734) (xy 2.914535 1.440319) (xy 2.907927 1.389880) (xy 2.900391 1.332905) (xy 2.892122 1.270884) (xy 2.886324 1.227667) (xy 2.877772 1.163443) (xy 2.869958 1.103542)
     (xy 2.863059 1.049407) (xy 2.857252 1.002484) (xy 2.852713 0.964217) (xy 2.849618 0.936051) (xy 2.848146 0.919432) (xy 2.848163 0.915458) (xy 2.856044 0.913357) (xy 2.875087 0.911650)
     (xy 2.902349 0.910526) (xy 2.931584 0.910167) (xy 2.963745 0.910604) (xy 2.990361 0.911793) (xy 3.008480 0.913546) (xy 3.015088 0.915458) (xy 3.016624 0.923562) (xy 3.019417 0.943915)
     (xy 3.023254 0.974736) (xy 3.027920 1.014238) (xy 3.033202 1.060639) (xy 3.038885 1.112155) (xy 3.040695 1.128889) (xy 3.046542 1.182095) (xy 3.052158 1.231154) (xy 3.057313 1.274196)
     (xy 3.061774 1.309348) (xy 3.065308 1.334739) (xy 3.067684 1.348496) (xy 3.068114 1.350021) (xy 3.071265 1.350404) (xy 3.078017 1.343236) (xy 3.088836 1.327758) (xy 3.104188 1.303212)
     (xy 3.124541 1.268841) (xy 3.150360 1.223885) (xy 3.182113 1.167588) (xy 3.199444 1.136591) (xy 3.325763 0.910167) (xy 3.413177 0.910167) (xy 3.450855 0.910473) )(layer F.SilkS) (width  0.010000)
  )
  (fp_poly (pts (xy 3.932031 0.911751) (xy 3.950171 0.913426) (xy 3.959451 0.916377) (xy 3.961481 0.918786) (xy 3.962992 0.927265) (xy 3.966170 0.947988) (xy 3.970773 0.979220) (xy 3.976559 1.019223)
     (xy 3.983284 1.066262) (xy 3.990706 1.118599) (xy 3.998583 1.174499) (xy 4.006671 1.232225) (xy 4.014728 1.290040) (xy 4.022512 1.346208) (xy 4.029780 1.398992) (xy 4.036289 1.446656)
     (xy 4.041797 1.487464) (xy 4.046061 1.519679) (xy 4.048838 1.541564) (xy 4.049886 1.551383) (xy 4.049889 1.551531) (xy 4.043052 1.555346) (xy 4.022459 1.557875) (xy 3.987991 1.559127)
     (xy 3.966035 1.559278) (xy 3.882182 1.559278) (xy 3.877468 1.518708) (xy 3.874089 1.491583) (xy 3.870585 1.466431) (xy 3.868814 1.455208) (xy 3.864874 1.432278) (xy 3.628150 1.432278)
     (xy 3.593055 1.494014) (xy 3.557959 1.555750) (xy 3.380321 1.559694) (xy 3.527984 1.312333) (xy 3.695488 1.312333) (xy 3.773911 1.312333) (xy 3.808699 1.312055) (xy 3.831656 1.311009)
     (xy 3.845053 1.308880) (xy 3.851164 1.305350) (xy 3.852334 1.301412) (xy 3.851572 1.290720) (xy 3.849523 1.269478) (xy 3.846539 1.240850) (xy 3.842973 1.207996) (xy 3.839178 1.174079)
     (xy 3.835505 1.142260) (xy 3.832308 1.115702) (xy 3.829940 1.097566) (xy 3.828899 1.091314) (xy 3.825072 1.095085) (xy 3.815534 1.109255) (xy 3.801478 1.131915) (xy 3.784099 1.161159)
     (xy 3.771448 1.183036) (xy 3.751601 1.217607) (xy 3.733527 1.248893) (xy 3.718697 1.274367) (xy 3.708578 1.291502) (xy 3.705551 1.296458) (xy 3.695488 1.312333) (xy 3.527984 1.312333)
     (xy 3.765955 0.913694) (xy 3.862205 0.911730) (xy 3.903289 0.911227) (xy 3.932031 0.911751) )(layer F.SilkS) (width  0.010000)
  )
  (fp_poly (pts (xy 4.408101 0.910567) (xy 4.432580 0.911903) (xy 4.446570 0.914380) (xy 4.451875 0.918202) (xy 4.452056 0.919313) (xy 4.450514 0.928103) (xy 4.446129 0.949013) (xy 4.439262 0.980423)
     (xy 4.430276 1.020711) (xy 4.419530 1.068256) (xy 4.407387 1.121436) (xy 4.395611 1.172566) (xy 4.382530 1.229350) (xy 4.370521 1.281891) (xy 4.359945 1.328578) (xy 4.351162 1.367802)
     (xy 4.344534 1.397952) (xy 4.340420 1.417419) (xy 4.339167 1.424474) (xy 4.344614 1.427369) (xy 4.361412 1.429561) (xy 4.390245 1.431086) (xy 4.431795 1.431980) (xy 4.486747 1.432277)
     (xy 4.488088 1.432278) (xy 4.539273 1.432445) (xy 4.577781 1.433008) (xy 4.605042 1.434052) (xy 4.622489 1.435668) (xy 4.631551 1.437943) (xy 4.633659 1.440965) (xy 4.633567 1.441250)
     (xy 4.630469 1.452088) (xy 4.625378 1.472675) (xy 4.619287 1.498968) (xy 4.617993 1.504750) (xy 4.605861 1.559278) (xy 4.370430 1.559278) (xy 4.304143 1.559173) (xy 4.250818 1.558829)
     (xy 4.209310 1.558203) (xy 4.178470 1.557251) (xy 4.157153 1.555930) (xy 4.144211 1.554196) (xy 4.138497 1.552005) (xy 4.138060 1.550458) (xy 4.140229 1.541947) (xy 4.145218 1.521104)
     (xy 4.152693 1.489355) (xy 4.162324 1.448121) (xy 4.173778 1.398827) (xy 4.186725 1.342897) (xy 4.200831 1.281754) (xy 4.212385 1.231534) (xy 4.227158 1.167457) (xy 4.241047 1.107604)
     (xy 4.253721 1.053379) (xy 4.264847 1.006188) (xy 4.274092 0.967436) (xy 4.281123 0.938527) (xy 4.285609 0.920867) (xy 4.287130 0.915798) (xy 4.295161 0.913566) (xy 4.314346 0.911752)
     (xy 4.341730 0.910554) (xy 4.371333 0.910167) (xy 4.408101 0.910567) )(layer F.SilkS) (width  0.010000)
  )
  (fp_poly (pts (xy -4.758972 -1.557543) (xy -4.095750 -1.555452) (xy -4.035963 -1.538825) (xy -3.938185 -1.505567) (xy -3.849188 -1.462198) (xy -3.766886 -1.407497) (xy -3.689192 -1.340246) (xy -3.679124 -1.330320)
     (xy -3.607752 -1.249528) (xy -3.548968 -1.162762) (xy -3.503006 -1.070674) (xy -3.470100 -0.973919) (xy -3.450485 -0.873148) (xy -3.444395 -0.769016) (xy -3.448897 -0.688601) (xy -3.465428 -0.585274)
     (xy -3.492970 -0.490150) (xy -3.532180 -0.401845) (xy -3.583720 -0.318970) (xy -3.648248 -0.240138) (xy -3.675771 -0.211494) (xy -3.754243 -0.141364) (xy -3.836837 -0.084210) (xy -3.925072 -0.039141)
     (xy -4.020465 -0.005264) (xy -4.032250 -0.001967) (xy -4.102805 0.017246) (xy -4.563180 0.019538) (xy -5.023555 0.021831) (xy -5.023555 0.811389) (xy -5.418666 0.811389) (xy -5.418666 -0.373306)
     (xy -4.792486 -0.375592) (xy -4.683647 -0.376004) (xy -4.588002 -0.376409) (xy -4.504635 -0.376826) (xy -4.432629 -0.377278) (xy -4.371067 -0.377785) (xy -4.319033 -0.378368) (xy -4.275610 -0.379048)
     (xy -4.239881 -0.379845) (xy -4.210929 -0.380780) (xy -4.187839 -0.381874) (xy -4.169692 -0.383149) (xy -4.155573 -0.384624) (xy -4.144564 -0.386321) (xy -4.135750 -0.388260) (xy -4.128213 -0.390462)
     (xy -4.127500 -0.390696) (xy -4.056896 -0.420967) (xy -3.994186 -0.462013) (xy -3.940513 -0.512677) (xy -3.897015 -0.571801) (xy -3.864835 -0.638228) (xy -3.855340 -0.666750) (xy -3.848139 -0.702549)
     (xy -3.844174 -0.746102) (xy -3.843531 -0.791995) (xy -3.846295 -0.834814) (xy -3.852185 -0.867833) (xy -3.876903 -0.932752) (xy -3.913706 -0.993340) (xy -3.960773 -1.047646) (xy -4.016278 -1.093719)
     (xy -4.078400 -1.129607) (xy -4.108337 -1.142027) (xy -4.159250 -1.160639) (xy -4.593559 -1.162748) (xy -5.027867 -1.164857) (xy -5.225031 -1.362245) (xy -5.422193 -1.559633) (xy -4.758972 -1.557543) )(layer F.SilkS) (width  0.010000)
  )
  (fp_poly (pts (xy -2.394713 0.403748) (xy -2.341234 0.403890) (xy -1.753305 0.405694) (xy -1.751432 0.605014) (xy -1.749558 0.804333) (xy -3.333408 0.804333) (xy -3.139551 0.608694) (xy -3.096401 0.565218)
     (xy -3.056172 0.524822) (xy -3.019985 0.488621) (xy -2.988965 0.457734) (xy -2.964233 0.433277) (xy -2.946912 0.416368) (xy -2.938126 0.408124) (xy -2.937429 0.407570) (xy -2.929261 0.406753)
     (xy -2.908037 0.406015) (xy -2.874810 0.405363) (xy -2.830635 0.404803) (xy -2.776566 0.404343) (xy -2.713658 0.403987) (xy -2.642964 0.403743) (xy -2.565539 0.403618) (xy -2.482438 0.403617)
     (xy -2.394713 0.403748) )(layer F.SilkS) (width  0.010000)
  )
  (fp_poly (pts (xy -0.105341 -0.783156) (xy -0.055987 -0.684537) (xy -0.008411 -0.589402) (xy 0.037006 -0.498516) (xy 0.079884 -0.412642) (xy 0.119843 -0.332542) (xy 0.156505 -0.258979) (xy 0.189489 -0.192716)
     (xy 0.218415 -0.134516) (xy 0.242903 -0.085142) (xy 0.262574 -0.045357) (xy 0.277049 -0.015924) (xy 0.285946 0.002394) (xy 0.288889 0.008819) (xy 0.282211 0.010113) (xy 0.263100 0.011292)
     (xy 0.233234 0.012317) (xy 0.194288 0.013147) (xy 0.147943 0.013743) (xy 0.095873 0.014065) (xy 0.066614 0.014111) (xy -0.156050 0.014111) (xy -0.327859 -0.332309) (xy -0.499667 -0.678729)
     (xy -0.871347 0.062802) (xy -1.243026 0.804333) (xy -1.686286 0.804333) (xy -1.092734 -0.382754) (xy -0.499183 -1.569839) (xy -0.105341 -0.783156) )(layer F.SilkS) (width  0.010000)
  )
  (fp_poly (pts (xy 0.242471 0.410685) (xy 0.269337 0.410885) (xy 0.489285 0.412750) (xy 0.586699 0.603250) (xy 0.611038 0.651007) (xy 0.633163 0.694727) (xy 0.652287 0.732829) (xy 0.667622 0.763733)
     (xy 0.678380 0.785855) (xy 0.683772 0.797615) (xy 0.684250 0.799042) (xy 0.677512 0.800341) (xy 0.658350 0.801525) (xy 0.628453 0.802553) (xy 0.589510 0.803383) (xy 0.543208 0.803977)
     (xy 0.491236 0.804292) (xy 0.463843 0.804333) (xy 0.243298 0.804333) (xy 0.146343 0.610272) (xy 0.122302 0.562040) (xy 0.100433 0.517947) (xy 0.081499 0.479554) (xy 0.066268 0.448420)
     (xy 0.055502 0.426106) (xy 0.049969 0.414170) (xy 0.049389 0.412616) (xy 0.056162 0.411789) (xy 0.075354 0.411147) (xy 0.105272 0.410702) (xy 0.144226 0.410467) (xy 0.190523 0.410457)
     (xy 0.242471 0.410685) )(layer F.SilkS) (width  0.010000)
  )
  (fp_poly (pts (xy 1.806222 -0.381000) (xy 1.806212 -0.252827) (xy 1.806182 -0.128522) (xy 1.806133 -0.008813) (xy 1.806066 0.105571) (xy 1.805983 0.213902) (xy 1.805883 0.315451) (xy 1.805770 0.409489)
     (xy 1.805643 0.495288) (xy 1.805504 0.572119) (xy 1.805353 0.639255) (xy 1.805193 0.695966) (xy 1.805023 0.741523) (xy 1.804845 0.775200) (xy 1.804661 0.796266) (xy 1.804470 0.803993)
     (xy 1.804459 0.804017) (xy 1.799029 0.799377) (xy 1.784154 0.786202) (xy 1.760863 0.765415) (xy 1.730183 0.737937) (xy 1.693144 0.704690) (xy 1.650772 0.666598) (xy 1.604097 0.624581)
     (xy 1.554636 0.580003) (xy 1.518566 0.547493) (xy 1.472892 0.506358) (xy 1.418507 0.457400) (xy 1.356305 0.401424) (xy 1.287180 0.339233) (xy 1.212025 0.271630) (xy 1.131734 0.199421)
     (xy 1.047201 0.123407) (xy 0.959319 0.044394) (xy 0.868982 -0.036816) (xy 0.777084 -0.119419) (xy 0.684518 -0.202611) (xy 0.592178 -0.285588) (xy 0.572366 -0.303389) (xy -0.161846 -0.963083)
     (xy -0.162062 -1.261181) (xy -0.162026 -1.324498) (xy -0.161836 -1.383225) (xy -0.161507 -1.435911) (xy -0.161057 -1.481101) (xy -0.160500 -1.517342) (xy -0.159855 -1.543182) (xy -0.159136 -1.557166)
     (xy -0.158714 -1.559278) (xy -0.153155 -1.554640) (xy -0.137694 -1.541072) (xy -0.112911 -1.519092) (xy -0.079383 -1.489220) (xy -0.037690 -1.451975) (xy 0.011590 -1.407875) (xy 0.067877 -1.357439)
     (xy 0.130594 -1.301187) (xy 0.199161 -1.239636) (xy 0.272999 -1.173307) (xy 0.351531 -1.102718) (xy 0.434177 -1.028387) (xy 0.520358 -0.950834) (xy 0.609495 -0.870577) (xy 0.624293 -0.857250)
     (xy 0.713860 -0.776601) (xy 0.800567 -0.698570) (xy 0.883834 -0.623677) (xy 0.963083 -0.552441) (xy 1.037735 -0.485380) (xy 1.107210 -0.423013) (xy 1.170931 -0.365860) (xy 1.228318 -0.314439)
     (xy 1.278792 -0.269269) (xy 1.321775 -0.230869) (xy 1.356687 -0.199758) (xy 1.382951 -0.176455) (xy 1.399986 -0.161478) (xy 1.407214 -0.155348) (xy 1.407424 -0.155222) (xy 1.407938 -0.162121)
     (xy 1.408432 -0.182185) (xy 1.408899 -0.214472) (xy 1.409335 -0.258035) (xy 1.409734 -0.311932) (xy 1.410093 -0.375217) (xy 1.410406 -0.446945) (xy 1.410667 -0.526171) (xy 1.410873 -0.611953)
     (xy 1.411018 -0.703344) (xy 1.411097 -0.799400) (xy 1.411111 -0.860778) (xy 1.411111 -1.566333) (xy 1.806222 -1.566333) (xy 1.806222 -0.381000) )(layer F.SilkS) (width  0.010000)
  )
  (fp_poly (pts (xy 3.519726 -1.562004) (xy 3.577901 -1.558971) (xy 3.628801 -1.554128) (xy 3.658306 -1.549644) (xy 3.754775 -1.526686) (xy 3.852277 -1.494164) (xy 3.948248 -1.453394) (xy 4.040125 -1.405687)
     (xy 4.125344 -1.352358) (xy 4.201341 -1.294720) (xy 4.257311 -1.242766) (xy 4.284816 -1.214344) (xy 4.004028 -0.940256) (xy 3.968750 -0.972201) (xy 3.932054 -1.002209) (xy 3.887147 -1.034056)
     (xy 3.838990 -1.064522) (xy 3.792544 -1.090382) (xy 3.770166 -1.101187) (xy 3.718062 -1.122694) (xy 3.668253 -1.138680) (xy 3.616936 -1.149929) (xy 3.560306 -1.157224) (xy 3.494560 -1.161350)
     (xy 3.474861 -1.162019) (xy 3.427229 -1.163144) (xy 3.390077 -1.163227) (xy 3.359798 -1.162053) (xy 3.332788 -1.159406) (xy 3.305438 -1.155071) (xy 3.282284 -1.150531) (xy 3.180962 -1.122980)
     (xy 3.087265 -1.083600) (xy 3.000782 -1.032164) (xy 2.921103 -0.968443) (xy 2.877249 -0.925132) (xy 2.808003 -0.841655) (xy 2.751426 -0.751995) (xy 2.707555 -0.656217) (xy 2.684229 -0.584858)
     (xy 2.673337 -0.533993) (xy 2.665565 -0.474028) (xy 2.661170 -0.409681) (xy 2.660409 -0.345668) (xy 2.663538 -0.286708) (xy 2.666588 -0.260964) (xy 2.687988 -0.162940) (xy 2.722782 -0.068255)
     (xy 2.770453 0.022097) (xy 2.830479 0.107121) (xy 2.897756 0.181346) (xy 2.977758 0.250738) (xy 3.063469 0.307323) (xy 3.154578 0.350958) (xy 3.250770 0.381501) (xy 3.351733 0.398810)
     (xy 3.379841 0.401200) (xy 3.448337 0.405802) (xy 3.675030 0.556779) (xy 3.725381 0.590435) (xy 3.771846 0.621728) (xy 3.813157 0.649786) (xy 3.848044 0.673736) (xy 3.875237 0.692705)
     (xy 3.893466 0.705821) (xy 3.901462 0.712211) (xy 3.901722 0.712618) (xy 3.895322 0.717426) (xy 3.877816 0.725003) (xy 3.851750 0.734534) (xy 3.819667 0.745209) (xy 3.784112 0.756214)
     (xy 3.747628 0.766736) (xy 3.712760 0.775963) (xy 3.682053 0.783082) (xy 3.679472 0.783613) (xy 3.642252 0.789466) (xy 3.594865 0.794356) (xy 3.540867 0.798156) (xy 3.483813 0.800737)
     (xy 3.427260 0.801973) (xy 3.374763 0.801734) (xy 3.329876 0.799893) (xy 3.302000 0.797203) (xy 3.176209 0.772895) (xy 3.052828 0.734976) (xy 2.933372 0.683917) (xy 2.925380 0.679954)
     (xy 2.811133 0.615586) (xy 2.707280 0.541834) (xy 2.613231 0.458175) (xy 2.528395 0.364082) (xy 2.452456 0.259452) (xy 2.387505 0.147479) (xy 2.335838 0.031929) (xy 2.297350 -0.086308)
     (xy 2.271940 -0.206345) (xy 2.259503 -0.327294) (xy 2.259936 -0.448265) (xy 2.273138 -0.568372) (xy 2.299003 -0.686726) (xy 2.337430 -0.802439) (xy 2.388314 -0.914622) (xy 2.451554 -1.022388)
     (xy 2.527045 -1.124848) (xy 2.614685 -1.221113) (xy 2.625650 -1.231856) (xy 2.723015 -1.316396) (xy 2.828515 -1.389480) (xy 2.941802 -1.450928) (xy 3.062527 -1.500563) (xy 3.190342 -1.538205)
     (xy 3.243804 -1.549948) (xy 3.285181 -1.555998) (xy 3.337006 -1.560226) (xy 3.395734 -1.562635) (xy 3.457823 -1.563227) (xy 3.519726 -1.562004) )(layer F.SilkS) (width  0.010000)
  )
  (fp_poly (pts (xy 4.794250 -0.973667) (xy 4.201615 -0.381000) (xy 4.794250 0.211667) (xy 5.386885 0.804333) (xy 5.108207 0.803961) (xy 4.829528 0.803589) (xy 4.234896 0.213058) (xy 3.640263 -0.377472)
     (xy 4.234911 -0.971903) (xy 4.829559 -1.566333) (xy 5.386885 -1.566333) (xy 4.794250 -0.973667) )(layer F.SilkS) (width  0.010000)
  )
  (fp_poly (pts (xy -2.935111 -0.130433) (xy -3.130949 0.065311) (xy -3.174248 0.108460) (xy -3.214490 0.148315) (xy -3.250576 0.183804) (xy -3.281406 0.213858) (xy -3.305880 0.237406) (xy -3.322898 0.253377)
     (xy -3.331360 0.260700) (xy -3.332032 0.261055) (xy -3.332677 0.254138) (xy -3.333299 0.233940) (xy -3.333894 0.201291) (xy -3.334456 0.157021) (xy -3.334981 0.101960) (xy -3.335464 0.036938)
     (xy -3.335901 -0.037214) (xy -3.336286 -0.119667) (xy -3.336615 -0.209591) (xy -3.336884 -0.306155) (xy -3.337086 -0.408529) (xy -3.337219 -0.515884) (xy -3.337276 -0.627389) (xy -3.337278 -0.652639)
     (xy -3.337278 -1.566333) (xy -2.935111 -1.566333) (xy -2.935111 -0.130433) )(layer F.SilkS) (width  0.010000)
  )
)
