EESchema Schematic File Version 4
EELAYER 30 0
EELAYER END
$Descr A4 11693 8268
encoding utf-8
Sheet 1 1
Title "Planck Valo - 6502 VGA output"
Date "2020-12-06"
Rev "1.1"
Comp "Six Pixels"
Comment1 ""
Comment2 ""
Comment3 ""
Comment4 ""
$EndDescr
$Comp
L gowin_fpga:GW1N-1_QN48 U3
U 1 1 5FA51713
P 7800 1800
F 0 "U3" H 8730 1353 60  0000 L CNN
F 1 "GW1N-1_QN48" H 8730 1247 60  0000 L CNN
F 2 "Package_DFN_QFN:QFN-48-1EP_6x6mm_P0.4mm_EP4.6x4.6mm" H 8000 1850 60  0001 L CNN
F 3 "" H 8000 1650 60  0001 L CNN
F 4 "GW1N-1_QN48" H 8000 1550 60  0001 L CNN "desc"
	1    7800 1800
	1    0    0    -1  
$EndComp
$Comp
L gowin_fpga:GW1N-1_QN48 U3
U 2 1 5FA536D7
P 3600 5750
F 0 "U3" H 5130 5403 60  0000 L CNN
F 1 "GW1N-1_QN48" H 5130 5297 60  0000 L CNN
F 2 "Package_DFN_QFN:QFN-48-1EP_6x6mm_P0.4mm_EP4.6x4.6mm" H 3800 5800 60  0001 L CNN
F 3 "" H 3800 5600 60  0001 L CNN
F 4 "GW1N-1_QN48" H 3800 5500 60  0001 L CNN "desc"
	2    3600 5750
	1    0    0    -1  
$EndComp
$Comp
L gowin_fpga:GW1N-1_QN48 U3
U 3 1 5FA54385
P 5650 3750
F 0 "U3" H 6680 3253 60  0000 L CNN
F 1 "GW1N-1_QN48" H 6680 3147 60  0000 L CNN
F 2 "Package_DFN_QFN:QFN-48-1EP_6x6mm_P0.4mm_EP4.6x4.6mm" H 5850 3800 60  0001 L CNN
F 3 "" H 5850 3600 60  0001 L CNN
F 4 "GW1N-1_QN48" H 5850 3500 60  0001 L CNN "desc"
	3    5650 3750
	1    0    0    -1  
$EndComp
$Comp
L gowin_fpga:GW1N-1_QN48 U3
U 4 1 5FA54FB3
P 7650 3300
F 0 "U3" H 8780 2953 60  0000 L CNN
F 1 "GW1N-1_QN48" H 8780 2847 60  0000 L CNN
F 2 "Package_DFN_QFN:QFN-48-1EP_6x6mm_P0.4mm_EP4.6x4.6mm" H 7850 3350 60  0001 L CNN
F 3 "" H 7850 3150 60  0001 L CNN
F 4 "GW1N-1_QN48" H 7850 3050 60  0001 L CNN "desc"
	4    7650 3300
	1    0    0    -1  
$EndComp
$Comp
L gowin_fpga:GW1N-1_QN48 U3
U 5 1 5FA56657
P 3850 4450
F 0 "U3" H 4780 4303 60  0000 L CNN
F 1 "GW1N-1_QN48" H 4780 4197 60  0000 L CNN
F 2 "Package_DFN_QFN:QFN-48-1EP_6x6mm_P0.4mm_EP4.6x4.6mm" H 4050 4500 60  0001 L CNN
F 3 "" H 4050 4300 60  0001 L CNN
F 4 "GW1N-1_QN48" H 4050 4200 60  0001 L CNN "desc"
	5    3850 4450
	1    0    0    -1  
$EndComp
$Comp
L power:+5V #PWR0101
U 1 1 5FA5D256
P 2600 4450
F 0 "#PWR0101" H 2600 4300 50  0001 C CNN
F 1 "+5V" H 2615 4623 50  0000 C CNN
F 2 "" H 2600 4450 50  0001 C CNN
F 3 "" H 2600 4450 50  0001 C CNN
	1    2600 4450
	1    0    0    -1  
$EndComp
$Comp
L power:GND #PWR0102
U 1 1 5FA5DA01
P 3200 4750
F 0 "#PWR0102" H 3200 4500 50  0001 C CNN
F 1 "GND" H 3205 4577 50  0000 C CNN
F 2 "" H 3200 4750 50  0001 C CNN
F 3 "" H 3200 4750 50  0001 C CNN
	1    3200 4750
	1    0    0    -1  
$EndComp
$Comp
L power:GND #PWR0103
U 1 1 5FA5E06D
P 3850 4850
F 0 "#PWR0103" H 3850 4600 50  0001 C CNN
F 1 "GND" H 3855 4677 50  0000 C CNN
F 2 "" H 3850 4850 50  0001 C CNN
F 3 "" H 3850 4850 50  0001 C CNN
	1    3850 4850
	1    0    0    -1  
$EndComp
$Comp
L power:+5V #PWR0104
U 1 1 5FA61F54
P 1250 3550
F 0 "#PWR0104" H 1250 3400 50  0001 C CNN
F 1 "+5V" H 1265 3723 50  0000 C CNN
F 2 "" H 1250 3550 50  0001 C CNN
F 3 "" H 1250 3550 50  0001 C CNN
	1    1250 3550
	1    0    0    -1  
$EndComp
$Comp
L power:GND #PWR0105
U 1 1 5FA61F5A
P 1900 3850
F 0 "#PWR0105" H 1900 3600 50  0001 C CNN
F 1 "GND" H 1905 3677 50  0000 C CNN
F 2 "" H 1900 3850 50  0001 C CNN
F 3 "" H 1900 3850 50  0001 C CNN
	1    1900 3850
	1    0    0    -1  
$EndComp
Wire Wire Line
	2200 3550 2350 3550
Wire Wire Line
	3850 4450 3850 4550
Connection ~ 3850 4550
Wire Wire Line
	3850 4550 3850 4650
$Comp
L power:+5V #PWR0106
U 1 1 5FA687F6
P 2600 4450
F 0 "#PWR0106" H 2600 4300 50  0001 C CNN
F 1 "+5V" H 2615 4623 50  0000 C CNN
F 2 "" H 2600 4450 50  0001 C CNN
F 3 "" H 2600 4450 50  0001 C CNN
	1    2600 4450
	1    0    0    -1  
$EndComp
$Comp
L power:GND #PWR0107
U 1 1 5FA687FC
P 3200 4750
F 0 "#PWR0107" H 3200 4500 50  0001 C CNN
F 1 "GND" H 3205 4577 50  0000 C CNN
F 2 "" H 3200 4750 50  0001 C CNN
F 3 "" H 3200 4750 50  0001 C CNN
	1    3200 4750
	1    0    0    -1  
$EndComp
Connection ~ 3200 4750
$Comp
L Connector:Conn_01x14_Male J2
U 1 1 5FA735EE
P 6900 2100
F 0 "J2" H 7008 2881 50  0000 C CNN
F 1 "Conn_01x14_Male" H 7008 2790 50  0000 C CNN
F 2 "Connector_PinHeader_2.54mm:PinHeader_1x14_P2.54mm_Vertical" H 6900 2100 50  0001 C CNN
F 3 "~" H 6900 2100 50  0001 C CNN
	1    6900 2100
	1    0    0    -1  
$EndComp
$Comp
L Connector:Conn_01x14_Male J1
U 1 1 5FA78417
P 2050 2150
F 0 "J1" H 2158 2931 50  0000 C CNN
F 1 "Conn_01x14_Male" H 2158 2840 50  0000 C CNN
F 2 "Connector_PinHeader_2.54mm:PinHeader_1x14_P2.54mm_Vertical" H 2050 2150 50  0001 C CNN
F 3 "~" H 2050 2150 50  0001 C CNN
	1    2050 2150
	1    0    0    -1  
$EndComp
$Comp
L power:GND #PWR0108
U 1 1 5FA7DFE6
P 2250 2850
F 0 "#PWR0108" H 2250 2600 50  0001 C CNN
F 1 "GND" H 2255 2677 50  0000 C CNN
F 2 "" H 2250 2850 50  0001 C CNN
F 3 "" H 2250 2850 50  0001 C CNN
	1    2250 2850
	1    0    0    -1  
$EndComp
$Comp
L power:+5V #PWR0109
U 1 1 5FA7E5EB
P 7400 1500
F 0 "#PWR0109" H 7400 1350 50  0001 C CNN
F 1 "+5V" H 7415 1673 50  0000 C CNN
F 2 "" H 7400 1500 50  0001 C CNN
F 3 "" H 7400 1500 50  0001 C CNN
	1    7400 1500
	1    0    0    -1  
$EndComp
Connection ~ 2600 4450
Wire Wire Line
	3200 4750 2600 4750
Wire Wire Line
	2600 4750 2600 4650
Wire Wire Line
	2600 4450 2900 4450
$Comp
L Device:C_Small C1
U 1 1 5FA8738E
P 1250 3650
F 0 "C1" H 1342 3696 50  0000 L CNN
F 1 "C_Small" H 1342 3605 50  0000 L CNN
F 2 "Capacitor_SMD:C_1206_3216Metric_Pad1.42x1.75mm_HandSolder" H 1250 3650 50  0001 C CNN
F 3 "~" H 1250 3650 50  0001 C CNN
	1    1250 3650
	1    0    0    -1  
$EndComp
Wire Wire Line
	1600 3550 1250 3550
Connection ~ 1250 3550
Wire Wire Line
	1250 3750 1250 3850
Wire Wire Line
	1250 3850 1900 3850
Connection ~ 1900 3850
$Comp
L Oscillator:IQXO-70 X1
U 1 1 5FA99322
P 2800 5750
F 0 "X1" H 3144 5796 50  0000 L CNN
F 1 "IQXO-70" H 3144 5705 50  0000 L CNN
F 2 "Oscillator:Oscillator_SMD_IQD_IQXO70-4Pin_7.5x5.0mm" H 3475 5425 50  0001 C CNN
F 3 "http://www.iqdfrequencyproducts.com/products/details/iqxo-70-11-30.pdf" H 2700 5750 50  0001 C CNN
	1    2800 5750
	1    0    0    -1  
$EndComp
Wire Wire Line
	3600 5750 3100 5750
$Comp
L power:GND #PWR0111
U 1 1 5FAA101B
P 2800 6050
F 0 "#PWR0111" H 2800 5800 50  0001 C CNN
F 1 "GND" H 2805 5877 50  0000 C CNN
F 2 "" H 2800 6050 50  0001 C CNN
F 3 "" H 2800 6050 50  0001 C CNN
	1    2800 6050
	1    0    0    -1  
$EndComp
$Comp
L Device:C_Small C3
U 1 1 5FAA2AB9
P 2450 5350
F 0 "C3" H 2542 5396 50  0000 L CNN
F 1 "C_Small" H 2542 5305 50  0000 L CNN
F 2 "Capacitor_SMD:C_1206_3216Metric_Pad1.42x1.75mm_HandSolder" H 2450 5350 50  0001 C CNN
F 3 "~" H 2450 5350 50  0001 C CNN
	1    2450 5350
	1    0    0    -1  
$EndComp
Wire Wire Line
	2800 5100 2800 5250
Wire Wire Line
	2450 5250 2800 5250
Connection ~ 2800 5250
Wire Wire Line
	2800 5250 2800 5450
$Comp
L power:GND #PWR0112
U 1 1 5FAA39FC
P 2450 5450
F 0 "#PWR0112" H 2450 5200 50  0001 C CNN
F 1 "GND" H 2455 5277 50  0000 C CNN
F 2 "" H 2450 5450 50  0001 C CNN
F 3 "" H 2450 5450 50  0001 C CNN
	1    2450 5450
	1    0    0    -1  
$EndComp
Text GLabel 7100 2000 2    50   Input ~ 0
B1
Text GLabel 7100 1900 2    50   Input ~ 0
B0
Text GLabel 6200 2400 2    50   Output ~ 0
A0
Text GLabel 6200 2500 2    50   Output ~ 0
A1
Text GLabel 6200 2600 2    50   Output ~ 0
A2
Text GLabel 6200 2700 2    50   Output ~ 0
A3
Text GLabel 6200 2100 2    50   Output ~ 0
RWB
Text GLabel 6200 2300 2    50   Output ~ 0
ENB
Text GLabel 7650 4000 0    50   Output ~ 0
B1
Text GLabel 7650 4100 0    50   Output ~ 0
B0
Text GLabel 6200 2200 2    50   Input ~ 0
IRQ
Text GLabel 5650 3950 0    50   Output ~ 0
IRQ
Text GLabel 5650 4450 0    50   Input ~ 0
A0
Text GLabel 5650 4550 0    50   Input ~ 0
A1
Text GLabel 5650 4650 0    50   Input ~ 0
A2
Text GLabel 5650 3850 0    50   Input ~ 0
RWB
Text GLabel 5650 4350 0    50   Input ~ 0
ENB
Text GLabel 3600 6550 0    50   BiDi ~ 0
D0
Text GLabel 3600 6450 0    50   BiDi ~ 0
D1
Text GLabel 3600 6350 0    50   BiDi ~ 0
D2
Text GLabel 3600 6250 0    50   BiDi ~ 0
D3
Text GLabel 3600 6150 0    50   BiDi ~ 0
D4
Text GLabel 3600 6050 0    50   BiDi ~ 0
D5
Text GLabel 3600 5950 0    50   BiDi ~ 0
D6
Text GLabel 3600 5850 0    50   BiDi ~ 0
D7
Text GLabel 6200 2800 2    50   Output ~ 0
RESET
Text GLabel 5650 4850 0    50   Input ~ 0
RESET
Text GLabel 5650 4750 0    50   Input ~ 0
A3
Text GLabel 7650 3300 0    50   BiDi ~ 0
TMS
Text GLabel 7250 3300 0    50   BiDi ~ 0
TCK
Text GLabel 7650 3600 0    50   BiDi ~ 0
TDI
Text GLabel 7650 3700 0    50   BiDi ~ 0
TD0
$Comp
L power:+3.3V #PWR0113
U 1 1 5FAC0AB0
P 2350 3550
F 0 "#PWR0113" H 2350 3400 50  0001 C CNN
F 1 "+3.3V" H 2365 3723 50  0000 C CNN
F 2 "" H 2350 3550 50  0001 C CNN
F 3 "" H 2350 3550 50  0001 C CNN
	1    2350 3550
	1    0    0    -1  
$EndComp
$Comp
L power:+3.3V #PWR0114
U 1 1 5FAC1458
P 7600 4700
F 0 "#PWR0114" H 7600 4550 50  0001 C CNN
F 1 "+3.3V" H 7615 4873 50  0000 C CNN
F 2 "" H 7600 4700 50  0001 C CNN
F 3 "" H 7600 4700 50  0001 C CNN
	1    7600 4700
	1    0    0    -1  
$EndComp
$Comp
L Device:R_Small R3
U 1 1 5FAC3051
P 7450 3450
F 0 "R3" V 7254 3450 50  0000 C CNN
F 1 "4.7k" V 7345 3450 50  0000 C CNN
F 2 "Resistor_SMD:R_0805_2012Metric_Pad1.15x1.40mm_HandSolder" H 7450 3450 50  0001 C CNN
F 3 "~" H 7450 3450 50  0001 C CNN
	1    7450 3450
	0    1    1    0   
$EndComp
$Comp
L power:GND #PWR0115
U 1 1 5FAC8AE0
P 7600 5500
F 0 "#PWR0115" H 7600 5250 50  0001 C CNN
F 1 "GND" H 7605 5327 50  0000 C CNN
F 2 "" H 7600 5500 50  0001 C CNN
F 3 "" H 7600 5500 50  0001 C CNN
	1    7600 5500
	1    0    0    -1  
$EndComp
Wire Wire Line
	7650 3400 7550 3400
Wire Wire Line
	7550 3400 7550 3450
Wire Wire Line
	7550 3400 7250 3400
Wire Wire Line
	7250 3400 7250 3300
Connection ~ 7550 3400
Wire Wire Line
	7350 3450 7100 3450
Text GLabel 7600 5200 0    50   BiDi ~ 0
TMS
Text GLabel 7600 4900 0    50   BiDi ~ 0
TCK
Text GLabel 7600 5350 0    50   BiDi ~ 0
TDI
Text GLabel 7600 5050 0    50   BiDi ~ 0
TD0
$Comp
L power:GND #PWR0117
U 1 1 5FA25B86
P 7100 3450
F 0 "#PWR0117" H 7100 3200 50  0001 C CNN
F 1 "GND" H 7105 3277 50  0000 C CNN
F 2 "" H 7100 3450 50  0001 C CNN
F 3 "" H 7100 3450 50  0001 C CNN
	1    7100 3450
	1    0    0    -1  
$EndComp
$Comp
L Device:C_Small C2
U 1 1 5FA85CF9
P 2600 4550
F 0 "C2" H 2692 4596 50  0000 L CNN
F 1 "C_Small" H 2692 4505 50  0000 L CNN
F 2 "Capacitor_SMD:C_1206_3216Metric_Pad1.42x1.75mm_HandSolder" H 2600 4550 50  0001 C CNN
F 3 "~" H 2600 4550 50  0001 C CNN
	1    2600 4550
	1    0    0    -1  
$EndComp
$Comp
L Device:C_Small C5
U 1 1 5FA2E92C
P 2350 3750
F 0 "C5" H 2442 3796 50  0000 L CNN
F 1 "C_Small" H 2442 3705 50  0000 L CNN
F 2 "Capacitor_SMD:C_1206_3216Metric_Pad1.42x1.75mm_HandSolder" H 2350 3750 50  0001 C CNN
F 3 "~" H 2350 3750 50  0001 C CNN
	1    2350 3750
	1    0    0    -1  
$EndComp
Connection ~ 3850 4450
$Comp
L Device:C_Small C4
U 1 1 5FA32A51
P 3450 4950
F 0 "C4" H 3542 4996 50  0000 L CNN
F 1 "C_Small" H 3542 4905 50  0000 L CNN
F 2 "Capacitor_SMD:C_1206_3216Metric_Pad1.42x1.75mm_HandSolder" H 3450 4950 50  0001 C CNN
F 3 "~" H 3450 4950 50  0001 C CNN
	1    3450 4950
	-1   0    0    1   
$EndComp
Wire Wire Line
	3500 4450 3500 4750
Wire Wire Line
	3500 4750 3450 4750
Wire Wire Line
	3450 4750 3450 4850
Connection ~ 3500 4750
$Comp
L power:GND #PWR0118
U 1 1 5FA3E1DF
P 3450 5050
F 0 "#PWR0118" H 3450 4800 50  0001 C CNN
F 1 "GND" H 3455 4877 50  0000 C CNN
F 2 "" H 3450 5050 50  0001 C CNN
F 3 "" H 3450 5050 50  0001 C CNN
	1    3450 5050
	1    0    0    -1  
$EndComp
Wire Wire Line
	3850 3550 3850 4450
Wire Wire Line
	2350 3650 2350 3550
Connection ~ 2350 3550
Wire Wire Line
	2350 3550 3850 3550
Wire Wire Line
	2350 3850 1900 3850
Wire Wire Line
	5100 2400 4700 2400
Wire Wire Line
	4700 2400 4700 550 
Wire Wire Line
	4700 550  2350 550 
Wire Wire Line
	2350 550  2350 1550
Wire Wire Line
	2350 1550 2250 1550
Wire Wire Line
	2250 1650 2400 1650
Wire Wire Line
	2400 1650 2400 600 
Wire Wire Line
	2400 600  4650 600 
Wire Wire Line
	4650 600  4650 2500
Wire Wire Line
	4650 2500 5100 2500
Wire Wire Line
	5100 2600 4600 2600
Wire Wire Line
	4600 2600 4600 650 
Wire Wire Line
	4600 650  2450 650 
Wire Wire Line
	2450 650  2450 1750
Wire Wire Line
	2450 1750 2250 1750
Wire Wire Line
	2250 1850 2500 1850
Wire Wire Line
	2500 1850 2500 700 
Wire Wire Line
	2500 700  4550 700 
Wire Wire Line
	4550 700  4550 2650
Wire Wire Line
	4550 2650 5100 2650
Wire Wire Line
	5100 2650 5100 2700
Wire Wire Line
	5100 2800 4500 2800
Wire Wire Line
	4500 2800 4500 750 
Wire Wire Line
	4500 750  2550 750 
Wire Wire Line
	2550 750  2550 1950
Wire Wire Line
	2550 1950 2250 1950
Wire Wire Line
	7650 1700 7650 600 
Wire Wire Line
	7700 550  7700 1500
Wire Wire Line
	4900 650  4900 2100
Wire Wire Line
	4900 2100 5100 2100
Wire Wire Line
	5100 2200 4850 2200
Wire Wire Line
	4850 600  4850 2200
Wire Wire Line
	4800 2300 5100 2300
Wire Wire Line
	4800 550  4800 2300
$Comp
L power:+5V #PWR0123
U 1 1 5FA7D975
P 5100 1400
F 0 "#PWR0123" H 5100 1250 50  0001 C CNN
F 1 "+5V" H 5115 1573 50  0000 C CNN
F 2 "" H 5100 1400 50  0001 C CNN
F 3 "" H 5100 1400 50  0001 C CNN
	1    5100 1400
	-1   0    0    -1  
$EndComp
$Comp
L power:+3.3V #PWR0124
U 1 1 5FA7D97B
P 6150 150
F 0 "#PWR0124" H 6150 0   50  0001 C CNN
F 1 "+3.3V" H 6165 323 50  0000 C CNN
F 2 "" H 6150 150 50  0001 C CNN
F 3 "" H 6150 150 50  0001 C CNN
	1    6150 150 
	-1   0    0    -1  
$EndComp
$Comp
L power:GND #PWR0126
U 1 1 5FAA7183
P 6750 3300
F 0 "#PWR0126" H 6750 3050 50  0001 C CNN
F 1 "GND" H 6755 3127 50  0000 C CNN
F 2 "" H 6750 3300 50  0001 C CNN
F 3 "" H 6750 3300 50  0001 C CNN
	1    6750 3300
	1    0    0    -1  
$EndComp
$Comp
L Regulator_Linear:AP2127N-1.2 U2
U 1 1 5FA6CC36
P 3200 4450
F 0 "U2" H 3200 4692 50  0000 C CNN
F 1 "AP2127N-1.2" H 3200 4601 50  0000 C CNN
F 2 "Package_TO_SOT_SMD:SOT-23" H 3200 4675 50  0001 C CIN
F 3 "https://www.diodes.com/assets/Datasheets/AP2127.pdf" H 3200 4450 50  0001 C CNN
	1    3200 4450
	1    0    0    -1  
$EndComp
$Comp
L Regulator_Linear:AP2127N-3.3 U1
U 1 1 5FA6C0C6
P 1900 3550
F 0 "U1" H 1900 3792 50  0000 C CNN
F 1 "AP2127N-3.3" H 1900 3701 50  0000 C CNN
F 2 "Package_TO_SOT_SMD:SOT-23" H 1900 3775 50  0001 C CIN
F 3 "https://www.diodes.com/assets/Datasheets/AP2127.pdf" H 1900 3550 50  0001 C CNN
	1    1900 3550
	1    0    0    -1  
$EndComp
Wire Wire Line
	3500 4750 3600 4750
$Comp
L power:+1V2 #PWR0127
U 1 1 5FA406E1
P 3600 4750
F 0 "#PWR0127" H 3600 4600 50  0001 C CNN
F 1 "+1V2" H 3615 4923 50  0000 C CNN
F 2 "" H 3600 4750 50  0001 C CNN
F 3 "" H 3600 4750 50  0001 C CNN
	1    3600 4750
	1    0    0    -1  
$EndComp
Connection ~ 3600 4750
Wire Wire Line
	3600 4750 3850 4750
$Comp
L power:+3.3V #PWR0121
U 1 1 5FA401C5
P 4100 1350
F 0 "#PWR0121" H 4100 1200 50  0001 C CNN
F 1 "+3.3V" H 4115 1523 50  0000 C CNN
F 2 "" H 4100 1350 50  0001 C CNN
F 3 "" H 4100 1350 50  0001 C CNN
	1    4100 1350
	-1   0    0    -1  
$EndComp
$Comp
L power:+5V #PWR0120
U 1 1 5FA3F58F
P 3000 1350
F 0 "#PWR0120" H 3000 1200 50  0001 C CNN
F 1 "+5V" H 3015 1523 50  0000 C CNN
F 2 "" H 3000 1350 50  0001 C CNN
F 3 "" H 3000 1350 50  0001 C CNN
	1    3000 1350
	-1   0    0    -1  
$EndComp
$Comp
L power:GND #PWR0119
U 1 1 5FA3D2CC
P 4100 3350
F 0 "#PWR0119" H 4100 3100 50  0001 C CNN
F 1 "GND" H 4105 3177 50  0000 C CNN
F 2 "" H 4100 3350 50  0001 C CNN
F 3 "" H 4100 3350 50  0001 C CNN
	1    4100 3350
	1    0    0    -1  
$EndComp
Text GLabel 4100 2750 2    50   BiDi ~ 0
D7
Text GLabel 4100 2650 2    50   BiDi ~ 0
D6
Text GLabel 4100 2550 2    50   BiDi ~ 0
D5
Text GLabel 4100 2450 2    50   BiDi ~ 0
D4
Text GLabel 4100 2350 2    50   BiDi ~ 0
D3
Text GLabel 4100 2250 2    50   BiDi ~ 0
D2
Text GLabel 4100 2150 2    50   BiDi ~ 0
D1
Text GLabel 4100 2050 2    50   BiDi ~ 0
D0
$Comp
L power:+3.3V #PWR0116
U 1 1 5FC6E72A
P 6200 1400
F 0 "#PWR0116" H 6200 1250 50  0001 C CNN
F 1 "+3.3V" H 6215 1573 50  0000 C CNN
F 2 "" H 6200 1400 50  0001 C CNN
F 3 "" H 6200 1400 50  0001 C CNN
	1    6200 1400
	-1   0    0    -1  
$EndComp
$Comp
L power:+3.3V #PWR0122
U 1 1 5FCD4C91
P 2800 5100
F 0 "#PWR0122" H 2800 4950 50  0001 C CNN
F 1 "+3.3V" H 2815 5273 50  0000 C CNN
F 2 "" H 2800 5100 50  0001 C CNN
F 3 "" H 2800 5100 50  0001 C CNN
	1    2800 5100
	1    0    0    -1  
$EndComp
Wire Wire Line
	7800 2100 7100 2100
Text Label 7500 2100 0    50   ~ 0
G0
Wire Wire Line
	7800 2200 7100 2200
Text Label 7500 2200 0    50   ~ 0
G1
Wire Wire Line
	7800 2300 7100 2300
Text Label 7500 2300 0    50   ~ 0
G2
Wire Wire Line
	7800 2400 7100 2400
Text Label 7500 2400 0    50   ~ 0
R0
Wire Wire Line
	7800 2500 7100 2500
Text Label 7500 2500 0    50   ~ 0
R1
Wire Wire Line
	7800 2600 7100 2600
Text Label 7500 2600 0    50   ~ 0
R2
Wire Wire Line
	7800 2700 7100 2700
Text Label 7500 2700 0    50   ~ 0
VSYNC
Wire Wire Line
	7800 2800 7300 2800
Text Label 7500 2800 0    50   ~ 0
HSYNC
$Comp
L Device:D_Schottky D1
U 1 1 5FCEC818
P 7250 1500
F 0 "D1" H 7250 1717 50  0000 C CNN
F 1 "D_Schottky" H 7250 1626 50  0000 C CNN
F 2 "Diode_SMD:D_SOD-323" H 7250 1500 50  0001 C CNN
F 3 "~" H 7250 1500 50  0001 C CNN
	1    7250 1500
	-1   0    0    1   
$EndComp
Wire Wire Line
	4900 650  7600 650 
Wire Wire Line
	4850 600  7650 600 
Wire Wire Line
	4800 550  7700 550 
$Comp
L Device:LED D2
U 1 1 6004FF2E
P 7450 3000
F 0 "D2" H 7443 2745 50  0000 C CNN
F 1 "LED" H 7443 2836 50  0000 C CNN
F 2 "LED_SMD:LED_1206_3216Metric_Pad1.42x1.75mm_HandSolder" H 7450 3000 50  0001 C CNN
F 3 "~" H 7450 3000 50  0001 C CNN
	1    7450 3000
	-1   0    0    1   
$EndComp
$Comp
L Device:R_Small R1
U 1 1 6005527A
P 7700 3000
F 0 "R1" V 7504 3000 50  0000 C CNN
F 1 "4.7k" V 7595 3000 50  0000 C CNN
F 2 "Resistor_SMD:R_0805_2012Metric_Pad1.15x1.40mm_HandSolder" H 7700 3000 50  0001 C CNN
F 3 "~" H 7700 3000 50  0001 C CNN
	1    7700 3000
	0    1    1    0   
$EndComp
$Comp
L power:GND #PWR0110
U 1 1 60059116
P 7800 3000
F 0 "#PWR0110" H 7800 2750 50  0001 C CNN
F 1 "GND" H 7805 2827 50  0000 C CNN
F 2 "" H 7800 3000 50  0001 C CNN
F 3 "" H 7800 3000 50  0001 C CNN
	1    7800 3000
	1    0    0    -1  
$EndComp
Wire Wire Line
	7300 3000 7300 2800
Connection ~ 7300 2800
Wire Wire Line
	7300 2800 7100 2800
$Comp
L eec:74LVC4245APW U6
U 1 1 6005AC5D
P 2900 1350
F 0 "U6" H 3550 1615 50  0000 C CNN
F 1 "74LVC4245APW" H 3550 1524 50  0000 C CNN
F 2 "manuf:NXP-DHVQFN24" H 2900 1750 50  0001 L CNN
F 3 "https://assets.nexperia.com/documents/data-sheet/74LVC4245A.pdf" H 2900 1850 50  0001 L CNN
F 4 "+125°C" H 2900 1950 50  0001 L CNN "ambient temperature range high"
F 5 "-40°C" H 2900 2050 50  0001 L CNN "ambient temperature range low"
F 6 "IC" H 2900 2150 50  0001 L CNN "category"
F 7 "Integrated Circuits (ICs)" H 2900 2250 50  0001 L CNN "device class L1"
F 8 "Logic ICs" H 2900 2350 50  0001 L CNN "device class L2"
F 9 "Drivers and Transceivers" H 2900 2450 50  0001 L CNN "device class L3"
F 10 "IC TRNSLTR BIDIRECTIONAL 24TSSOP" H 2900 2550 50  0001 L CNN "digikey description"
F 11 "1727-4308-1-ND" H 2900 2650 50  0001 L CNN "digikey part number"
F 12 "https://assets.nexperia.com/documents/outline-drawing/SOT355-1.pdf" H 2900 2750 50  0001 L CNN "footprint url"
F 13 "1.1mm" H 2900 2850 50  0001 L CNN "height"
F 14 "yes" H 2900 2950 50  0001 L CNN "lead free"
F 15 "f7e6ccd11bb07020" H 2900 3050 50  0001 L CNN "library id"
F 16 "Non-Inverting" H 2900 3150 50  0001 L CNN "logic function"
F 17 "Nexperia" H 2900 3250 50  0001 L CNN "manufacturer"
F 18 "5.5V" H 2900 3350 50  0001 L CNN "max supply voltage"
F 19 "1.5V" H 2900 3450 50  0001 L CNN "min supply voltage"
F 20 "TRANSCEIVER, OCTAL, 3-STATE O/P, TSSOP20; Logic Device Type: Transceiver; Supply" H 2900 3550 50  0001 L CNN "mouser description"
F 21 "771-74LVC4245APW-T" H 2900 3650 50  0001 L CNN "mouser part number"
F 22 "40-5000uA" H 2900 3750 50  0001 L CNN "nominal supply current"
F 23 "1" H 2900 3850 50  0001 L CNN "number of circuits"
F 24 "8" H 2900 3950 50  0001 L CNN "number of inputs"
F 25 "8" H 2900 4050 50  0001 L CNN "number of outputs"
F 26 "TSSOP24" H 2900 4150 50  0001 L CNN "package"
F 27 "8.5ns" H 2900 4250 50  0001 L CNN "propagation delay"
F 28 "yes" H 2900 4350 50  0001 L CNN "rohs"
F 29 "0.05mm" H 2900 4450 50  0001 L CNN "standoff height"
F 30 "+125°C" H 2900 4550 50  0001 L CNN "temperature range high"
F 31 "-40°C" H 2900 4650 50  0001 L CNN "temperature range low"
	1    2900 1350
	1    0    0    -1  
$EndComp
Wire Wire Line
	4100 3350 4100 3250
Connection ~ 4100 3350
Connection ~ 4100 3250
Wire Wire Line
	4100 3250 4100 3150
Text GLabel 7750 1500 2    50   Input ~ 0
~CS~
Wire Wire Line
	7750 1500 7700 1500
Connection ~ 7700 1500
Wire Wire Line
	7700 1500 7700 1600
Text GLabel 3000 1650 0    50   Input ~ 0
~CS~
$Comp
L eec:74LVC4245APW U4
U 1 1 600DE338
P 5000 1400
F 0 "U4" H 5650 1665 50  0000 C CNN
F 1 "74LVC4245APW" H 5650 1574 50  0000 C CNN
F 2 "manuf:NXP-DHVQFN24" H 5000 1800 50  0001 L CNN
F 3 "https://assets.nexperia.com/documents/data-sheet/74LVC4245A.pdf" H 5000 1900 50  0001 L CNN
F 4 "+125°C" H 5000 2000 50  0001 L CNN "ambient temperature range high"
F 5 "-40°C" H 5000 2100 50  0001 L CNN "ambient temperature range low"
F 6 "IC" H 5000 2200 50  0001 L CNN "category"
F 7 "Integrated Circuits (ICs)" H 5000 2300 50  0001 L CNN "device class L1"
F 8 "Logic ICs" H 5000 2400 50  0001 L CNN "device class L2"
F 9 "Drivers and Transceivers" H 5000 2500 50  0001 L CNN "device class L3"
F 10 "IC TRNSLTR BIDIRECTIONAL 24TSSOP" H 5000 2600 50  0001 L CNN "digikey description"
F 11 "1727-4308-1-ND" H 5000 2700 50  0001 L CNN "digikey part number"
F 12 "https://assets.nexperia.com/documents/outline-drawing/SOT355-1.pdf" H 5000 2800 50  0001 L CNN "footprint url"
F 13 "1.1mm" H 5000 2900 50  0001 L CNN "height"
F 14 "yes" H 5000 3000 50  0001 L CNN "lead free"
F 15 "f7e6ccd11bb07020" H 5000 3100 50  0001 L CNN "library id"
F 16 "Non-Inverting" H 5000 3200 50  0001 L CNN "logic function"
F 17 "Nexperia" H 5000 3300 50  0001 L CNN "manufacturer"
F 18 "5.5V" H 5000 3400 50  0001 L CNN "max supply voltage"
F 19 "1.5V" H 5000 3500 50  0001 L CNN "min supply voltage"
F 20 "TRANSCEIVER, OCTAL, 3-STATE O/P, TSSOP20; Logic Device Type: Transceiver; Supply" H 5000 3600 50  0001 L CNN "mouser description"
F 21 "771-74LVC4245APW-T" H 5000 3700 50  0001 L CNN "mouser part number"
F 22 "40-5000uA" H 5000 3800 50  0001 L CNN "nominal supply current"
F 23 "1" H 5000 3900 50  0001 L CNN "number of circuits"
F 24 "8" H 5000 4000 50  0001 L CNN "number of inputs"
F 25 "8" H 5000 4100 50  0001 L CNN "number of outputs"
F 26 "TSSOP24" H 5000 4200 50  0001 L CNN "package"
F 27 "8.5ns" H 5000 4300 50  0001 L CNN "propagation delay"
F 28 "yes" H 5000 4400 50  0001 L CNN "rohs"
F 29 "0.05mm" H 5000 4500 50  0001 L CNN "standoff height"
F 30 "+125°C" H 5000 4600 50  0001 L CNN "temperature range high"
F 31 "-40°C" H 5000 4700 50  0001 L CNN "temperature range low"
	1    5000 1400
	1    0    0    -1  
$EndComp
Wire Wire Line
	6200 1500 6200 1400
Connection ~ 6200 1400
$Comp
L power:GND #PWR0125
U 1 1 6010431A
P 6300 3400
F 0 "#PWR0125" H 6300 3150 50  0001 C CNN
F 1 "GND" H 6305 3227 50  0000 C CNN
F 2 "" H 6300 3400 50  0001 C CNN
F 3 "" H 6300 3400 50  0001 C CNN
	1    6300 3400
	1    0    0    -1  
$EndComp
Wire Wire Line
	6300 3400 6200 3400
Wire Wire Line
	6200 3400 6200 3300
Connection ~ 6200 3400
Connection ~ 6200 3300
Wire Wire Line
	6200 3300 6200 3200
Wire Wire Line
	5100 1700 5000 1700
Text GLabel 5000 1700 1    50   Input ~ 0
~CTRL_OE~
Wire Wire Line
	4100 1450 4100 1350
Connection ~ 4100 1350
Text GLabel 3000 1850 0    50   Input ~ 0
DIR
Text GLabel 5100 1900 0    50   Input ~ 0
DIR
Text GLabel 7800 2000 0    50   Input ~ 0
DIR
Text GLabel 5600 3750 0    50   Input ~ 0
~CTRL_OE~
Wire Wire Line
	5600 3750 5650 3750
$Comp
L Device:C_Small C7
U 1 1 6014E527
P 1200 1800
F 0 "C7" H 1292 1846 50  0000 L CNN
F 1 "C_Small" H 1292 1755 50  0000 L CNN
F 2 "Capacitor_SMD:C_1206_3216Metric_Pad1.42x1.75mm_HandSolder" H 1200 1800 50  0001 C CNN
F 3 "~" H 1200 1800 50  0001 C CNN
	1    1200 1800
	-1   0    0    1   
$EndComp
$Comp
L Device:C_Small C9
U 1 1 60153197
P 1450 1800
F 0 "C9" H 1542 1846 50  0000 L CNN
F 1 "C_Small" H 1542 1755 50  0000 L CNN
F 2 "Capacitor_SMD:C_1206_3216Metric_Pad1.42x1.75mm_HandSolder" H 1450 1800 50  0001 C CNN
F 3 "~" H 1450 1800 50  0001 C CNN
	1    1450 1800
	-1   0    0    1   
$EndComp
$Comp
L power:+5V #PWR0128
U 1 1 6015C5F8
P 700 1700
F 0 "#PWR0128" H 700 1550 50  0001 C CNN
F 1 "+5V" H 715 1873 50  0000 C CNN
F 2 "" H 700 1700 50  0001 C CNN
F 3 "" H 700 1700 50  0001 C CNN
	1    700  1700
	1    0    0    -1  
$EndComp
$Comp
L power:GND #PWR0129
U 1 1 6016101F
P 700 1900
F 0 "#PWR0129" H 700 1650 50  0001 C CNN
F 1 "GND" H 705 1727 50  0000 C CNN
F 2 "" H 700 1900 50  0001 C CNN
F 3 "" H 700 1900 50  0001 C CNN
	1    700  1900
	1    0    0    -1  
$EndComp
Wire Wire Line
	1450 1900 1200 1900
Connection ~ 1200 1900
Wire Wire Line
	1200 1900 700  1900
Wire Wire Line
	1450 1700 1200 1700
Connection ~ 1200 1700
Wire Wire Line
	1200 1700 700  1700
$Comp
L Device:C_Small C6
U 1 1 60171A04
P 1200 1000
F 0 "C6" H 1292 1046 50  0000 L CNN
F 1 "C_Small" H 1292 955 50  0000 L CNN
F 2 "Capacitor_SMD:C_1206_3216Metric_Pad1.42x1.75mm_HandSolder" H 1200 1000 50  0001 C CNN
F 3 "~" H 1200 1000 50  0001 C CNN
	1    1200 1000
	-1   0    0    1   
$EndComp
$Comp
L Device:C_Small C8
U 1 1 60171A0A
P 1450 1000
F 0 "C8" H 1542 1046 50  0000 L CNN
F 1 "C_Small" H 1542 955 50  0000 L CNN
F 2 "Capacitor_SMD:C_1206_3216Metric_Pad1.42x1.75mm_HandSolder" H 1450 1000 50  0001 C CNN
F 3 "~" H 1450 1000 50  0001 C CNN
	1    1450 1000
	-1   0    0    1   
$EndComp
$Comp
L power:GND #PWR0130
U 1 1 60171A16
P 700 1100
F 0 "#PWR0130" H 700 850 50  0001 C CNN
F 1 "GND" H 705 927 50  0000 C CNN
F 2 "" H 700 1100 50  0001 C CNN
F 3 "" H 700 1100 50  0001 C CNN
	1    700  1100
	1    0    0    -1  
$EndComp
Wire Wire Line
	1450 1100 1200 1100
Connection ~ 1200 1100
Wire Wire Line
	1200 1100 700  1100
Wire Wire Line
	1450 900  1200 900 
Connection ~ 1200 900 
Wire Wire Line
	1200 900  700  900 
$Comp
L power:+3.3V #PWR0131
U 1 1 6017C95A
P 700 900
F 0 "#PWR0131" H 700 750 50  0001 C CNN
F 1 "+3.3V" H 715 1073 50  0000 C CNN
F 2 "" H 700 900 50  0001 C CNN
F 3 "" H 700 900 50  0001 C CNN
	1    700  900 
	1    0    0    -1  
$EndComp
$Comp
L Connector:TestPoint TP2
U 1 1 60054D65
P 7600 4900
F 0 "TP2" V 7554 5088 50  0000 L CNN
F 1 "TestPoint" V 7645 5088 50  0000 L CNN
F 2 "TestPoint:TestPoint_Pad_D1.0mm" H 7800 4900 50  0001 C CNN
F 3 "~" H 7800 4900 50  0001 C CNN
	1    7600 4900
	0    1    1    0   
$EndComp
$Comp
L Connector:TestPoint TP3
U 1 1 6005C149
P 7600 5050
F 0 "TP3" V 7554 5238 50  0000 L CNN
F 1 "TestPoint" V 7645 5238 50  0000 L CNN
F 2 "TestPoint:TestPoint_Pad_D1.0mm" H 7800 5050 50  0001 C CNN
F 3 "~" H 7800 5050 50  0001 C CNN
	1    7600 5050
	0    1    1    0   
$EndComp
$Comp
L Connector:TestPoint TP4
U 1 1 60061B60
P 7600 5200
F 0 "TP4" V 7554 5388 50  0000 L CNN
F 1 "TestPoint" V 7645 5388 50  0000 L CNN
F 2 "TestPoint:TestPoint_Pad_D1.0mm" H 7800 5200 50  0001 C CNN
F 3 "~" H 7800 5200 50  0001 C CNN
	1    7600 5200
	0    1    1    0   
$EndComp
$Comp
L Connector:TestPoint TP5
U 1 1 60067622
P 7600 5350
F 0 "TP5" V 7554 5538 50  0000 L CNN
F 1 "TestPoint" V 7645 5538 50  0000 L CNN
F 2 "TestPoint:TestPoint_Pad_D1.0mm" H 7800 5350 50  0001 C CNN
F 3 "~" H 7800 5350 50  0001 C CNN
	1    7600 5350
	0    1    1    0   
$EndComp
$Comp
L Connector:TestPoint TP6
U 1 1 6006D201
P 7600 5500
F 0 "TP6" V 7554 5688 50  0000 L CNN
F 1 "TestPoint" V 7645 5688 50  0000 L CNN
F 2 "TestPoint:TestPoint_Pad_D1.0mm" H 7800 5500 50  0001 C CNN
F 3 "~" H 7800 5500 50  0001 C CNN
	1    7600 5500
	0    1    1    0   
$EndComp
$Comp
L Connector:TestPoint TP1
U 1 1 60092BB4
P 7600 4700
F 0 "TP1" V 7554 4888 50  0000 L CNN
F 1 "TestPoint" V 7645 4888 50  0000 L CNN
F 2 "TestPoint:TestPoint_Pad_D1.0mm" H 7800 4700 50  0001 C CNN
F 3 "~" H 7800 4700 50  0001 C CNN
	1    7600 4700
	0    1    1    0   
$EndComp
Wire Wire Line
	3000 2050 2250 2050
Wire Wire Line
	2250 2150 3000 2150
Wire Wire Line
	3000 2250 2250 2250
Wire Wire Line
	2250 2350 3000 2350
Wire Wire Line
	3000 2450 2250 2450
Wire Wire Line
	2250 2550 3000 2550
Wire Wire Line
	3000 2650 2250 2650
Wire Wire Line
	2250 2750 3000 2750
Wire Wire Line
	7600 1800 7100 1800
Wire Wire Line
	7600 650  7600 1800
Wire Wire Line
	7100 1600 7700 1600
Wire Wire Line
	7650 1700 7100 1700
$Comp
L Device:C_Small C10
U 1 1 6025A216
P 1750 1000
F 0 "C10" H 1842 1046 50  0000 L CNN
F 1 "C_Small" H 1842 955 50  0000 L CNN
F 2 "Capacitor_SMD:C_1206_3216Metric_Pad1.42x1.75mm_HandSolder" H 1750 1000 50  0001 C CNN
F 3 "~" H 1750 1000 50  0001 C CNN
	1    1750 1000
	-1   0    0    1   
$EndComp
$Comp
L Device:C_Small C11
U 1 1 6025A21C
P 2000 1000
F 0 "C11" H 2092 1046 50  0000 L CNN
F 1 "C_Small" H 2092 955 50  0000 L CNN
F 2 "Capacitor_SMD:C_1206_3216Metric_Pad1.42x1.75mm_HandSolder" H 2000 1000 50  0001 C CNN
F 3 "~" H 2000 1000 50  0001 C CNN
	1    2000 1000
	-1   0    0    1   
$EndComp
Wire Wire Line
	2000 900  1750 900 
Connection ~ 1450 900 
Connection ~ 1750 900 
Wire Wire Line
	1750 900  1450 900 
Wire Wire Line
	2000 1100 1750 1100
Connection ~ 1450 1100
Connection ~ 1750 1100
Wire Wire Line
	1750 1100 1450 1100
$EndSCHEMATC
