-series GW1N
-device GW1N-1
-package QFN48
-part_number GW1N-LV1QN48C6/I5


-mod_name Gowin_rPLL
-file_name gowin_rpll
-path Z:/Documents/6502/vga/software/src/gowin_rpll/
-type PLL
-rPll true
-file_type vlg
-dev_type GW1N-1
-dyn_idiv_sel false
-idiv_sel 3
-dyn_fbdiv_sel false
-fbdiv_sel 25
-dyn_odiv_sel false
-odiv_sel 4
-dyn_sdiv_sel 8
-dyn_da_en false
-rst_sig false
-rst_sig_p false
-fclkin 24
-clkfb_sel 0
-en_lock false
-clkout_bypass false
-en_clkoutp true
-clkoutp_bypass false
-psda_sel 0
-dutyda_sel 8
-en_clkoutd true
-clkoutd_bypass false
-clkoutd_src CLKOUTP
-en_clkoutd3 false